<?xml version="1.0" encoding="UTF-8"?>
<svg width="128px" height="128px" viewBox="0 0 128 128" version="1.1" xmlns="http://www.w3.org/2000/svg" xmlns:xlink="http://www.w3.org/1999/xlink">
    <!-- Generator: Sketch 58 (84663) - https://sketch.com -->
    <title>Artboard</title>
    <desc>Created with Sketch.</desc>
    <g id="Artboard" stroke="none" stroke-width="1" fill="none" fill-rule="evenodd">
        <rect id="Rectangle" fill="#00E8FF" x="32" y="32" width="19" height="19"></rect>
        <rect id="Rectangle" fill="#AC9FEF" x="54" y="32" width="19" height="19"></rect>
        <path d="M77,32 C87.4934102,32 96,40.5065898 96,51 L96,51 L96,51 L77,51 L77,32 Z" id="Rectangle" fill="#FF2DDE"></path>
        <path d="M51,54 L51,54 L51,54 L51,73 L32,73 C32,62.5065898 40.5065898,54 51,54 Z" id="Rectangle" fill="#00C7FB"></path>
        <rect id="Rectangle" fill="#7D89F1" x="54" y="54" width="19" height="19"></rect>
        <rect id="Rectangle" fill="#D448ED" x="77" y="54" width="19" height="19"></rect>
        <path d="M32,77 L51,77 L51,96 C40.5065898,96 32,87.4934102 32,77 L32,77 L32,77 Z" id="Rectangle" fill="#00A5F4"></path>
        <rect id="Rectangle" fill="#4F70F3" x="54" y="77" width="19" height="19"></rect>
        <rect id="Rectangle" fill="#7424F3" x="77" y="77" width="19" height="19"></rect>
    </g>
</svg>